{
  "tickets": [
    {
      "url": "https://mxtechtest.zendesk.com/api/v2/tickets/103.json",
      "id": 103,
      "external_id": null,
      "via": {
        "channel": "api",
        "source": {
          "from": {},
          "to": {},
          "rel": null
        }
      },
      "created_at": "2014-01-30T14:18:40Z",
      "updated_at": "2014-01-30T14:18:40Z",
      "type": "problem",
      "subject": "Ticket : 99",
      "raw_subject": "Ticket : 99",
      "description": "This is a test ticket",
      "priority": "high",
      "status": "new",
      "recipient": null,
      "requester_id": 465863061,
      "submitter_id": 465863061,
      "assignee_id": null,
      "organization_id": 28603191,
      "group_id": 21750951,
      "collaborator_ids": [],
      "follower_ids": [],
      "forum_topic_id": null,
      "problem_id": null,
      "has_incidents": false,
      "is_public": true,
      "due_at": null,
      "tags": [],
      "custom_fields": [],
      "satisfaction_rating": null,
      "sharing_agreement_ids": [],
      "fields": [],
      "brand_id": 85821,
      "allow_channelback": false
    },
    {
      "url": "https://mxtechtest.zendesk.com/api/v2/tickets/101.json",
      "id": 101,
      "external_id": null,
      "via": {
        "channel": "api",
        "source": {
          "from": {},
          "to": {},
          "rel": null
        }
      },
      "created_at": "2014-01-30T14:18:37Z",
      "updated_at": "2014-01-30T14:18:37Z",
      "type": "incident",
      "subject": "Ticket : 97",
      "raw_subject": "Ticket : 97",
      "description": "This is a test ticket",
      "priority": "high",
      "status": "new",
      "recipient": null,
      "requester_id": 465863061,
      "submitter_id": 465863061,
      "assignee_id": null,
      "organization_id": 28603191,
      "group_id": 21750951,
      "collaborator_ids": [],
      "follower_ids": [],
      "forum_topic_id": null,
      "problem_id": null,
      "has_incidents": false,
      "is_public": true,
      "due_at": null,
      "tags": [],
      "custom_fields": [],
      "satisfaction_rating": null,
      "sharing_agreement_ids": [],
      "fields": [],
      "brand_id": 85821,
      "allow_channelback": false
    },
    {
      "url": "https://mxtechtest.zendesk.com/api/v2/tickets/99.json",
      "id": 99,
      "external_id": null,
      "via": {
        "channel": "api",
        "source": {
          "from": {},
          "to": {},
          "rel": null
        }
      },
      "created_at": "2014-01-30T14:18:34Z",
      "updated_at": "2014-01-30T14:18:34Z",
      "type": null,
      "subject": "Ticket : 95",
      "raw_subject": "Ticket : 95",
      "description": "This is a test ticket",
      "priority": "high",
      "status": "new",
      "recipient": null,
      "requester_id": 465863061,
      "submitter_id": 465863061,
      "assignee_id": null,
      "organization_id": 28603191,
      "group_id": 21750951,
      "collaborator_ids": [],
      "follower_ids": [],
      "forum_topic_id": null,
      "problem_id": null,
      "has_incidents": false,
      "is_public": true,
      "due_at": null,
      "tags": [],
      "custom_fields": [],
      "satisfaction_rating": null,
      "sharing_agreement_ids": [],
      "fields": [],
      "brand_id": 85821,
      "allow_channelback": false
    },
    {
      "url": "https://mxtechtest.zendesk.com/api/v2/tickets/97.json",
      "id": 97,
      "external_id": null,
      "via": {
        "channel": "api",
        "source": {
          "from": {},
          "to": {},
          "rel": null
        }
      },
      "created_at": "2014-01-30T14:18:31Z",
      "updated_at": "2014-01-30T14:18:31Z",
      "type": "task",
      "subject": "Ticket : 93",
      "raw_subject": "Ticket : 93",
      "description": "This is a test ticket",
      "priority": "high",
      "status": "new",
      "recipient": null,
      "requester_id": 465863061,
      "submitter_id": 465863061,
      "assignee_id": null,
      "organization_id": 28603191,
      "group_id": 21750951,
      "collaborator_ids": [],
      "follower_ids": [],
      "forum_topic_id": null,
      "problem_id": null,
      "has_incidents": false,
      "is_public": true,
      "due_at": null,
      "tags": [],
      "custom_fields": [],
      "satisfaction_rating": null,
      "sharing_agreement_ids": [],
      "fields": [],
      "brand_id": 85821,
      "allow_channelback": false
    },
    {
      "url": "https://mxtechtest.zendesk.com/api/v2/tickets/95.json",
      "id": 95,
      "external_id": null,
      "via": {
        "channel": "api",
        "source": {
          "from": {},
          "to": {},
          "rel": null
        }
      },
      "created_at": "2014-01-30T14:18:28Z",
      "updated_at": "2014-01-30T14:18:28Z",
      "type": null,
      "subject": "Ticket : 91",
      "raw_subject": "Ticket : 91",
      "description": "This is a test ticket",
      "priority": "high",
      "status": "new",
      "recipient": null,
      "requester_id": 465863061,
      "submitter_id": 465863061,
      "assignee_id": null,
      "organization_id": 28603191,
      "group_id": 21750951,
      "collaborator_ids": [],
      "follower_ids": [],
      "forum_topic_id": null,
      "problem_id": null,
      "has_incidents": false,
      "is_public": true,
      "due_at": null,
      "tags": [],
      "custom_fields": [],
      "satisfaction_rating": null,
      "sharing_agreement_ids": [],
      "fields": [],
      "brand_id": 85821,
      "allow_channelback": false
    }
  ],
  "next_page": "https://mxtechtest.zendesk.com/api/v2/views/39551161/tickets.json?page=2&per_page=5",
  "previous_page": null,
  "count": 45
}
